<svg xmlns="http://www.w3.org/2000/svg" viewBox="0 0 266.9 266.9">
  <path fill="white" d="M252.2 0H14.7C6.6 0 0 6.6 0 14.7v237.4c0 8.1 6.6 14.7 14.7 14.7h127.8V163.5h-34.8v-40.3h34.8V93.6c0-34.5 21.1-53.2 51.8-53.2 14.7 0 27.4 1.1 31.1 1.6v36h-21.3c-16.7 0-20 7.9-20 19.6v25.7H224l-5.2 40.3h-34.7V267h68c8.1 0 14.7-6.6 14.7-14.7V14.7c.1-8.1-6.5-14.7-14.6-14.7z"
  />
</svg>